{
    "name": "side",
    "nodes": [
        {
            "children": [],
            "frame_index": 0,
            "name": "body #1.png",
            "node_path": "body #1.png",
            "offset": [
                -1500,
                1000
            ],
            "opacity": 1.0,
            "pivot_offset": [
                0.0,
                0.0
            ],
            "position": [
                2363,
                626
            ],
            "resource_path": "sprites/body #1.png",
            "rotation": 0.0,
            "scale": [
                1.0,
                1.0
            ],
            "tiles_x": 1,
            "tiles_y": 1,
            "type": "SPRITE",
            "z": 0
        },
        {
            "children": [],
            "frame_index": 0,
            "name": "eyes closed.png",
            "node_path": "eyes closed.png",
            "offset": [
                -1500,
                1000
            ],
            "opacity": 1.0,
            "pivot_offset": [
                0.0,
                0.0
            ],
            "position": [
                2506,
                360
            ],
            "resource_path": "sprites/eyes closed.png",
            "rotation": 0.0,
            "scale": [
                1.0,
                1.0
            ],
            "tiles_x": 1,
            "tiles_y": 1,
            "type": "SPRITE",
            "z": -1
        },
        {
            "children": [],
            "frame_index": 0,
            "name": "eyes open.png",
            "node_path": "eyes open.png",
            "offset": [
                -1500,
                1000
            ],
            "opacity": 1.0,
            "pivot_offset": [
                0.0,
                0.0
            ],
            "position": [
                2517,
                335
            ],
            "resource_path": "sprites/eyes open.png",
            "rotation": 0.0,
            "scale": [
                1.0,
                1.0
            ],
            "tiles_x": 1,
            "tiles_y": 1,
            "type": "SPRITE",
            "z": -2
        },
        {
            "children": [],
            "frame_index": 0,
            "name": "head #1.png",
            "node_path": "head #1.png",
            "offset": [
                -1500,
                1000
            ],
            "opacity": 1.0,
            "pivot_offset": [
                0.0,
                0.0
            ],
            "position": [
                2270,
                182
            ],
            "resource_path": "sprites/head #1.png",
            "rotation": 0.0,
            "scale": [
                1.0,
                1.0
            ],
            "tiles_x": 1,
            "tiles_y": 1,
            "type": "SPRITE",
            "z": -3
        },
        {
            "children": [],
            "frame_index": 0,
            "name": "leg left #1.png",
            "node_path": "leg left #1.png",
            "offset": [
                -1500,
                1000
            ],
            "opacity": 1.0,
            "pivot_offset": [
                0.0,
                0.0
            ],
            "position": [
                2431,
                897
            ],
            "resource_path": "sprites/leg left #1.png",
            "rotation": 0.0,
            "scale": [
                1.0,
                1.0
            ],
            "tiles_x": 1,
            "tiles_y": 1,
            "type": "SPRITE",
            "z": -4
        },
        {
            "children": [],
            "frame_index": 0,
            "name": "leg right #1.png",
            "node_path": "leg right #1.png",
            "offset": [
                -1500,
                1000
            ],
            "opacity": 1.0,
            "pivot_offset": [
                0.0,
                0.0
            ],
            "position": [
                2446,
                871
            ],
            "resource_path": "sprites/leg right #1.png",
            "rotation": 0.0,
            "scale": [
                1.0,
                1.0
            ],
            "tiles_x": 1,
            "tiles_y": 1,
            "type": "SPRITE",
            "z": -5
        }
    ]
}